<svg width="28" height="26" viewBox="0 0 28 26" fill="none" xmlns="http://www.w3.org/2000/svg">
<rect opacity="0.01" width="28" height="30" fill="black"/>
<path d="M24.5933 8.75001C24.1833 7.98876 23.4302 7.51416 22.61 7.50001H7.67665L6.99998 4.67501C6.8592 4.11349 6.37566 3.7301 5.83331 3.75001H3.49998C2.85565 3.75001 2.33331 4.30965 2.33331 5.00001C2.33331 5.69036 2.85565 6.25001 3.49998 6.25001H4.94665L8.16665 19.075C8.30742 19.6365 8.79097 20.0199 9.33331 20H19.8333C20.2726 19.9986 20.674 19.7329 20.8716 19.3125L24.6983 11.1125C25.0352 10.3559 24.9958 9.46885 24.5933 8.75001Z" fill="black"/>
<ellipse cx="8.75" cy="24.375" rx="1.75" ry="1.875" fill="black"/>
<ellipse cx="20.4167" cy="24.375" rx="1.75" ry="1.875" fill="black"/>
<circle cx="25" cy="7" r="3" fill="#E6131B"/>
</svg>
