<svg width="231" height="54" viewBox="0 0 231 54" fill="none" xmlns="http://www.w3.org/2000/svg">
<g clip-path="url(#clip0_274_713)">
<g clip-path="url(#clip1_274_713)">
<path d="M37.3334 13.6854C38.7653 14.2829 40.0568 15.1727 41.125 16.2979C42.2105 15.2308 43.4859 14.3758 44.8854 13.7771C46.9625 12.9167 49.3438 12.7625 51.4167 13.9584C53.4875 15.1542 54.5479 17.2959 54.8417 19.5229C55.0292 20.9563 54.9209 22.4979 54.5354 24.0438C56.0439 24.4044 57.4603 25.0764 58.6938 26.0167C60.5271 27.4417 61.8334 29.5334 61.8334 32C61.8334 34.4542 60.5417 36.5375 58.7229 37.9584C57.5308 38.8765 56.1641 39.5421 54.7063 39.9146C55.1167 41.4167 55.2271 42.9417 55.0229 44.3688C54.6979 46.6542 53.5438 48.8146 51.4188 50.0417C49.2792 51.2771 46.8146 51.1875 44.6667 50.3146C43.2354 49.7171 41.9446 48.8273 40.8771 47.7021C39.7313 48.8063 38.45 49.6729 37.1146 50.2229C35.0375 51.0834 32.6563 51.2375 30.5834 50.0417C28.5125 48.8459 27.4542 46.7042 27.1584 44.4771C26.9776 42.9642 27.0815 41.4309 27.4646 39.9563C25.9562 39.5953 24.5399 38.9234 23.3063 37.9834C21.4729 36.5584 20.1667 34.4667 20.1667 32C20.1667 29.5459 21.4584 27.4646 23.2771 26.0417C24.4684 25.123 25.8344 24.4567 27.2917 24.0834C26.8848 22.6355 26.7771 21.12 26.975 19.6292C27.3021 17.3459 28.4563 15.1854 30.5834 13.9584C32.7209 12.725 35.1854 12.8125 37.3334 13.6854V13.6854ZM41 23.6667C38.7899 23.6667 36.6703 24.5447 35.1075 26.1075C33.5447 27.6703 32.6667 29.7899 32.6667 32C32.6667 34.2102 33.5447 36.3298 35.1075 37.8926C36.6703 39.4554 38.7899 40.3334 41 40.3334C43.2102 40.3334 45.3298 39.4554 46.8926 37.8926C48.4554 36.3298 49.3334 34.2102 49.3334 32C49.3334 29.7899 48.4554 27.6703 46.8926 26.1075C45.3298 24.5447 43.2102 23.6667 41 23.6667V23.6667ZM41 27.8334C42.1051 27.8334 43.1649 28.2723 43.9463 29.0537C44.7277 29.8351 45.1667 30.895 45.1667 32C45.1667 33.1051 44.7277 34.1649 43.9463 34.9463C43.1649 35.7277 42.1051 36.1667 41 36.1667C39.895 36.1667 38.8351 35.7277 38.0537 34.9463C37.2723 34.1649 36.8334 33.1051 36.8334 32C36.8334 30.895 37.2723 29.8351 38.0537 29.0537C38.8351 28.2723 39.895 27.8334 41 27.8334V27.8334Z" fill="white"/>
</g>
</g>
<path d="M89.3906 19.0938V42H83.4375V39.5469C82.6042 40.5885 81.8438 41.2917 81.1562 41.6562C80.2396 42.1354 79.2188 42.375 78.0938 42.375C75.8333 42.375 74.1042 41.5156 72.9062 39.7969C71.7188 38.0781 71.125 35.9896 71.125 33.5312C71.125 30.7812 71.7812 28.6771 73.0938 27.2188C74.4167 25.7604 76.0938 25.0312 78.125 25.0312C79.1146 25.0312 80.0104 25.1979 80.8125 25.5312C81.625 25.8646 82.3438 26.3646 82.9688 27.0312V19.0938H89.3906ZM83.0156 33.6562C83.0156 32.3542 82.7396 31.3854 82.1875 30.75C81.6354 30.1042 80.9375 29.7812 80.0938 29.7812C79.3542 29.7812 78.7344 30.0885 78.2344 30.7031C77.7344 31.3177 77.4844 32.349 77.4844 33.7969C77.4844 35.151 77.7396 36.1458 78.25 36.7812C78.7708 37.4062 79.4115 37.7188 80.1719 37.7188C80.9844 37.7188 81.6615 37.401 82.2031 36.7656C82.7448 36.1302 83.0156 35.0938 83.0156 33.6562ZM93.3281 25.4062H99.2812V28.125C99.8542 26.9479 100.443 26.1406 101.047 25.7031C101.661 25.2552 102.417 25.0312 103.312 25.0312C104.25 25.0312 105.276 25.3229 106.391 25.9062L104.422 30.4375C103.672 30.125 103.078 29.9688 102.641 29.9688C101.807 29.9688 101.161 30.3125 100.703 31C100.047 31.9688 99.7188 33.7812 99.7188 36.4375V42H93.3281V25.4062ZM126.438 35.2812H113.688C113.802 36.3021 114.078 37.0625 114.516 37.5625C115.13 38.2812 115.932 38.6406 116.922 38.6406C117.547 38.6406 118.141 38.4844 118.703 38.1719C119.047 37.974 119.417 37.625 119.812 37.125L126.078 37.7031C125.12 39.3698 123.964 40.5677 122.609 41.2969C121.255 42.0156 119.312 42.375 116.781 42.375C114.583 42.375 112.854 42.0677 111.594 41.4531C110.333 40.8281 109.286 39.8438 108.453 38.5C107.63 37.1458 107.219 35.5573 107.219 33.7344C107.219 31.1406 108.047 29.0417 109.703 27.4375C111.37 25.8333 113.667 25.0312 116.594 25.0312C118.969 25.0312 120.844 25.3906 122.219 26.1094C123.594 26.8281 124.641 27.8698 125.359 29.2344C126.078 30.599 126.438 32.375 126.438 34.5625V35.2812ZM119.969 32.2344C119.844 31.0052 119.51 30.125 118.969 29.5938C118.438 29.0625 117.734 28.7969 116.859 28.7969C115.849 28.7969 115.042 29.1979 114.438 30C114.052 30.5 113.807 31.2448 113.703 32.2344H119.969ZM135.156 30.7812L129.078 30.1406C129.307 29.0781 129.635 28.2448 130.062 27.6406C130.5 27.026 131.125 26.4948 131.938 26.0469C132.521 25.724 133.323 25.474 134.344 25.2969C135.365 25.1198 136.469 25.0312 137.656 25.0312C139.562 25.0312 141.094 25.1406 142.25 25.3594C143.406 25.5677 144.37 26.0104 145.141 26.6875C145.682 27.1562 146.109 27.8229 146.422 28.6875C146.734 29.5417 146.891 30.3594 146.891 31.1406V38.4688C146.891 39.25 146.938 39.8646 147.031 40.3125C147.135 40.75 147.354 41.3125 147.688 42H141.719C141.479 41.5729 141.323 41.25 141.25 41.0312C141.177 40.8021 141.104 40.4479 141.031 39.9688C140.198 40.7708 139.37 41.3438 138.547 41.6875C137.422 42.1458 136.115 42.375 134.625 42.375C132.646 42.375 131.141 41.9167 130.109 41C129.089 40.0833 128.578 38.9531 128.578 37.6094C128.578 36.349 128.948 35.3125 129.688 34.5C130.427 33.6875 131.792 33.0833 133.781 32.6875C136.167 32.2083 137.714 31.875 138.422 31.6875C139.13 31.4896 139.88 31.2344 140.672 30.9219C140.672 30.1406 140.51 29.5938 140.188 29.2812C139.865 28.9688 139.297 28.8125 138.484 28.8125C137.443 28.8125 136.661 28.9792 136.141 29.3125C135.734 29.5729 135.406 30.0625 135.156 30.7812ZM140.672 34.125C139.797 34.4375 138.885 34.7135 137.938 34.9531C136.646 35.2969 135.828 35.6354 135.484 35.9688C135.13 36.3125 134.953 36.7031 134.953 37.1406C134.953 37.6406 135.125 38.0521 135.469 38.375C135.823 38.6875 136.339 38.8438 137.016 38.8438C137.724 38.8438 138.38 38.6719 138.984 38.3281C139.599 37.9844 140.031 37.5677 140.281 37.0781C140.542 36.5781 140.672 35.9323 140.672 35.1406V34.125ZM150.75 25.4062H156.688V27.8281C157.542 26.8177 158.401 26.099 159.266 25.6719C160.141 25.2448 161.193 25.0312 162.422 25.0312C163.745 25.0312 164.792 25.2656 165.562 25.7344C166.333 26.2031 166.964 26.901 167.453 27.8281C168.453 26.7448 169.365 26.0104 170.188 25.625C171.01 25.2292 172.026 25.0312 173.234 25.0312C175.016 25.0312 176.406 25.5625 177.406 26.625C178.406 27.6771 178.906 29.3281 178.906 31.5781V42H172.531V32.5469C172.531 31.7969 172.385 31.2396 172.094 30.875C171.667 30.3021 171.135 30.0156 170.5 30.0156C169.75 30.0156 169.146 30.2865 168.688 30.8281C168.229 31.3698 168 32.2396 168 33.4375V42H161.625V32.8594C161.625 32.1302 161.583 31.6354 161.5 31.375C161.365 30.9583 161.13 30.625 160.797 30.375C160.464 30.1146 160.073 29.9844 159.625 29.9844C158.896 29.9844 158.297 30.2604 157.828 30.8125C157.359 31.3646 157.125 32.2708 157.125 33.5312V42H150.75V25.4062Z" fill="white"/>
<defs>
<clipPath id="clip0_274_713">
<rect width="140" height="54" fill="white"/>
</clipPath>
<clipPath id="clip1_274_713">
<rect width="50" height="50" fill="white" transform="translate(16 7)"/>
</clipPath>
</defs>
</svg>
