[
    {"id": 1,
    "ask": "Как ухаживать за кожей в зимний период?", 
    "answer": "Кожа в зимний период нуждается в увлажнении."
    
    }, 
    {"id": 2,
    "ask": "Какой спф необходим?", 
    "answer": "спф действенен 50+."
    
    }, 
    {"id": 3,
    "ask": "Как ухаживать за кожей в летний период?", 
    "answer": "Летом необходимо использовать спф." 
    
    }, 
    {"id": 4,
    "ask": "какой уход необходим мужчинам?", 
    "answer": "очищение, увлажнение, тонизирование." 
    
    }

    
]